<?xml version="1.0" encoding="UTF-8" standalone="no"?>
<svg
   xmlns:dc="http://purl.org/dc/elements/1.1/"
   xmlns:cc="http://creativecommons.org/ns#"
   xmlns:rdf="http://www.w3.org/1999/02/22-rdf-syntax-ns#"
   xmlns:svg="http://www.w3.org/2000/svg"
   xmlns="http://www.w3.org/2000/svg"
   xmlns:sodipodi="http://sodipodi.sourceforge.net/DTD/sodipodi-0.dtd"
   xmlns:inkscape="http://www.inkscape.org/namespaces/inkscape"
   width="210mm"
   height="297mm"
   viewBox="0 0 210 297"
   version="1.1"
   id="svg8"
   inkscape:version="1.0.2 (e86c870879, 2021-01-15)"
   sodipodi:docname="wave2.svg">
  <defs
     id="defs2" />
  <sodipodi:namedview
     id="base"
     pagecolor="#ffffff"
     bordercolor="#666666"
     borderopacity="1.0"
     inkscape:pageopacity="0.0"
     inkscape:pageshadow="2"
     inkscape:zoom="256"
     inkscape:cx="2.4820987"
     inkscape:cy="0.6629743"
     inkscape:document-units="mm"
     inkscape:current-layer="layer1"
     inkscape:document-rotation="0"
     showgrid="false"
     inkscape:snap-bbox="true"
     inkscape:bbox-nodes="false"
     inkscape:snap-page="true"
     inkscape:snap-global="true"
     inkscape:bbox-paths="true"
     showguides="true"
     inkscape:guide-bbox="true"
     inkscape:window-width="1366"
     inkscape:window-height="741"
     inkscape:window-x="0"
     inkscape:window-y="27"
     inkscape:window-maximized="0">
    <sodipodi:guide
       position="0.99999998,297.00001"
       orientation="1,0"
       id="guide841" />
    <sodipodi:guide
       position="0.99999998,296.00001"
       orientation="0,-1"
       id="guide845" />
  </sodipodi:namedview>
  <metadata
     id="metadata5">
    <rdf:RDF>
      <cc:Work
         rdf:about="">
        <dc:format>image/svg+xml</dc:format>
        <dc:type
           rdf:resource="http://purl.org/dc/dcmitype/StillImage" />
        <dc:title></dc:title>
      </cc:Work>
    </rdf:RDF>
  </metadata>
  <g
     inkscape:label="Layer 1"
     inkscape:groupmode="layer"
     id="layer1">
    <rect
       style="fill:none;stroke:#000000;stroke-width:0.00264583;stroke-miterlimit:4;stroke-dasharray:none;paint-order:markers fill stroke"
       id="rect833"
       width="1"
       height="1"
       x="0"
       y="0" />
    <path
       style="fill:none;stroke:#000000;stroke-width:0.00264583;stroke-linecap:butt;stroke-linejoin:miter;stroke-opacity:1;stroke-miterlimit:4;stroke-dasharray:none"
       d="M 0.36547591,0 0.28127961,0.14477675 0.35423351,0.27522743 0.17895951,0.42004675 0,0.22245879"
       id="path835" />
    <path
       style="fill:none;stroke:#000000;stroke-width:0.00264583;stroke-linecap:butt;stroke-linejoin:miter;stroke-opacity:1;stroke-miterlimit:4;stroke-dasharray:none"
       d="M 0,0.32117929 0.16877822,0.54462317 0.36411668,0.41251237 0.30636133,1"
       id="path837" />
    <path
       style="fill:none;stroke:#000000;stroke-width:0.00264583;stroke-linecap:butt;stroke-linejoin:miter;stroke-miterlimit:4;stroke-dasharray:none;stroke-opacity:1"
       d="M 0.4853428,0 0.5695391,0.14477675 0.4965852,0.27522743 0.75038849,0.35204203 1,0.56405396"
       id="path839"
       sodipodi:nodetypes="ccccc" />
    <path
       style="fill:none;stroke:#000000;stroke-width:0.00264583;stroke-linecap:butt;stroke-linejoin:miter;stroke-miterlimit:4;stroke-dasharray:none;stroke-opacity:1"
       d="M 1,0.665936 0.72700485,0.42025437 0.54617404,0.40190326 0.62405314,1"
       id="path843"
       sodipodi:nodetypes="cccc" />
    <path
       style="fill:none;stroke:#000000;stroke-width:0.00264583;stroke-linecap:butt;stroke-linejoin:miter;stroke-opacity:1;stroke-miterlimit:4;stroke-dasharray:none"
       d="M 0.40162355,1 0.44,0.61 0.519,1"
       id="path1469" />
    <path
       style="fill:none;stroke:#000000;stroke-width:0.00264583;stroke-linecap:butt;stroke-linejoin:miter;stroke-opacity:1;stroke-miterlimit:4;stroke-dasharray:none"
       d="M 0.33907547,0.16496599 0.424,0.206 0.503,0.171"
       id="path2619" />
    <path
       style="fill:none;stroke:#000000;stroke-width:0.00264583;stroke-linecap:butt;stroke-linejoin:miter;stroke-opacity:1;stroke-miterlimit:4;stroke-dasharray:none"
       d="M 0.347,0.087 0.4,0.084 0.371,0.106 0.347,0.087"
       id="path2621" />
    <path
       style="fill:none;stroke:#000000;stroke-width:0.00264583;stroke-linecap:butt;stroke-linejoin:miter;stroke-opacity:1;stroke-miterlimit:4;stroke-dasharray:none"
       d="M 0.458,0.093 0.507,0.094 0.479,0.117 0.458,0.093"
       id="path2623" />
  </g>
</svg>
